HackeRnews - specification
…
comments

The discussion in story threads is represented as system of comments.
Each story has top level comments ids stored under the kids
property. Each comment post can have it’s own set of comments ids under
kids property (sub-comments) and so on. In order to
retrieve all of the comments of a specific story, just use the
get_comments function.

top_story <- get_top_stories(max_items = 1)[[1]]
get_comments(top_story)
#> # A tibble: 181 × 7
#>          id deleted by           time                text           dead  parent
#>       <int> <lgl>   <chr>        <dttm>              <chr>          <lgl>  <int>
#>  1 43616592 FALSE   mrexroad     2025-04-08 00:22:34 "I clicked th… FALSE 4.36e7
#>  2 43616226 FALSE   pelagic_sky  2025-04-07 23:38:13 "Reminds me o… FALSE 4.36e7
#>  3 43616302 FALSE   zoogeny      2025-04-07 23:47:23 "I still reme… FALSE 4.36e7
#>  4 43618907 FALSE   blixt        2025-04-08 08:31:00 "I remember a… FALSE 4.36e7
#>  5 43619011 FALSE   chenhoey1211 2025-04-08 08:50:39 "“Japan has a… FALSE 4.36e7
#>  6 43616136 FALSE   NickC25      2025-04-07 23:26:29 "That&#x27;s … FALSE 4.36e7
#>  7 43616100 FALSE   1317         2025-04-07 23:23:11 "Original vid… FALSE 4.36e7
#>  8 43616097 FALSE   uneoneuno    2025-04-07 23:22:34 "Reminds me o… FALSE 4.36e7
#>  9 43616567 FALSE   mosura       2025-04-08 00:18:52 "This is a su… FALSE 4.36e7
#> 10 43618261 FALSE   xyzal        2025-04-08 06:07:00 "&gt; Kids ha… FALSE 4.36e7
#> # ℹ 171 more rows
…
